{
  "data": [
    {
      "id": 0,
      "url": "http://kittens.mybigcommerce.com/",
      "channel_id": 0,
      "created_at": "2018-01-04T04:15:50.000Z",
      "updated_at": "2018-01-04T04:15:50.000Z",
      "ssl_status": "dedicated",
      "urls": [
        {
          "url": "string",
          "type": "primary",
          "created_at": "2018-01-04T04:15:50.000Z",
          "updated_at": "2018-01-04T04:15:50.000Z"
        }
      ],
      "is_checkout_url_customized": true
    }
  ],
  "meta": {
    "pagination": {
      "total": 3,
      "count": 1,
      "per_page": 1,
      "current_page": 2,
      "total_pages": 3,
      "links": {
        "previous": "?limit=1&page=1",
        "next": "?limit=1&page=3",
        "current": "?limit=1&page=2"
      }
    }
  }
}
